Practical-6/Part-1/MalcolmVivado/Practical_6/Practical_6.sim/sim_1/behav/xsim/dump.vcd
$date
   Fri Nov  5 17:29:04 2021
$end
$version
  2021.2
$end
$timescale
  1ps
$end
$scope module tb_simple_CPU $end
$var reg 1 ! clk $end
$var reg 1 " rst $end
$var reg 20 # instruction [19:0] $end
$scope module SCPU_DUT $end
$var wire 20 $ instruction [19:0] $end
$var wire 1 % clk $end
$var wire 1 & rst $end
$var wire 5 ' addr_i [4:0] $end
$var wire 8 ( data_in_i [7:0] $end
$var wire 8 ) data_out_i [7:0] $end
$var wire 8 * result2_i [7:0] $end
$var wire 1 + wen_i $end
$var wire 8 , operand_a_i [7:0] $end
$var wire 8 - operand_b_i [7:0] $end
$var wire 8 . result1_i [7:0] $end
$var wire 4 / opcode_i [3:0] $end
$var wire 8 0 offset_i [7:0] $end
$var wire 1 1 sel1_i $end
$var wire 1 2 sel3_i $end
$var wire 8 3 operand_1_i [7:0] $end
$var wire 8 4 operand_2_i [7:0] $end
$scope module alu1 $end
$var wire 1 % clk $end
$var wire 8 , operand_a [7:0] $end
$var wire 8 - operand_b [7:0] $end
$var wire 4 / opcode [3:0] $end
$var reg 8 5 result [7:0] $end
$upscope $end
$scope module data_memory $end
$var wire 5 ' addr [4:0] $end
$var wire 8 ( data_in [7:0] $end
$var wire 1 + wen $end
$var wire 1 % clk $end
$var reg 8 6 data_out [7:0] $end
$upscope $end
$scope module CU1 $end
$var wire 1 % clk $end
$var wire 1 & rst $end
$var wire 20 $ instr [19:0] $end
$var wire 8 * result2 [7:0] $end
$var reg 8 7 operand1 [7:0] $end
$var reg 8 8 operand2 [7:0] $end
$var reg 8 9 offset [7:0] $end
$var reg 4 : opcode [3:0] $end
$var reg 1 ; sel1 $end
$var reg 1 < sel3 $end
$var reg 1 = w_r $end
$var reg 20 > instruction [19:0] $end
$var reg 4 ? state [3:0] $end
$upscope $end
$upscope $end
$upscope $end
$enddefinitions $end
#0
$dumpvars
1!
1"
b0 #
b0 $
1%
1&
bz '
bx (
bx )
bx *
0+
bx ,
bx -
bx .
b1111 /
bx 0
01
02
bx 3
bx 4
bx 5
bx 6
bx 7
bx 8
bx 9
b1111 :
0;
0<
0=
b0 >
b0 ?
$end
#1000
0!
0%
#2000
1!
1%
bx 5
bx 6
b1111 :
0;
0<
0=
b0 >
b0 ?
#3000
0!
0"
0%
0&
#4000
1!
1%
bx 5
bx 6
b1111 :
0;
0<
0=
b0 >
b0 ?
#5000
0!
b1000111000000000000 #
b1000111000000000000 $
0%
#6000
1!
1%
bx 5
bx 6
b1111 :
0;
0<
0=
b1000111000000000000 >
b1 ?
#7000
0!
0%
#8000
1!
1%
b11 (
bx *
b1 ,
b11 -
b0 /
b0 0
11
b1 3
b11 4
bx 5
bx 6
b1 7
b11 8
b0 9
b0 :
1;
0<
0=
b1000111000000000000 >
b10 ?
#9000
0!
0%
#10000
1!
1%
b100 *
b100 .
b1 3
b11 4
b100 5
bx 6
b1 7
b11 8
b0 9
b0 :
1;
0<
0=
b1000111000000000000 >
b1000 ?
#11000
0!
0%
#12000
1!
1%
b1 3
b11 4
b100 5
bx 6
b1 7
b11 8
b0 9
b0 :
1;
0<
0=
b1000111000000000000 >
b1 ?
#13000
0!
b1010011000000000000 #
b1010011000000000000 $
0%
#14000
1!
1%
b100 ,
b100 3
b11 4
b100 5
bx 6
b100 7
b11 8
b0 9
b0 :
1;
0<
0=
b1010011000000000000 >
b10 ?
#15000
0!
0%
#16000
1!
1%
b111 *
b111 .
b111 5
bx 6
b100 7
b11 8
b0 9
b0 :
1;
0<
0=
b1010011000000000000 >
b1000 ?
#17000
0!
0%
#18000
1!
1%
b111 5
bx 6
b100 7
b11 8
b0 9
b0 :
1;
0<
0=
b1010011000000000000 >
b1 ?
#19000
0!
b1110010000000000001 #
b1110010000000000001 $
0%
#20000
1!
1%
b10 (
b10 -
b1 /
b10 4
b111 5
bx 6
b100 7
b10 8
b0 9
b1 :
1;
0<
0=
b1110010000000000001 >
b10 ?
#21000
0!
0%
#22000
1!
1%
b10 *
b10 .
b10 5
bx 6
b100 7
b10 8
b0 9
b1 :
1;
0<
0=
b1110010000000000001 >
b1000 ?
#23000
0!
0%
#24000
1!
1%
b10 5
bx 6
b100 7
b10 8
b0 9
b1 :
1;
0<
0=
b1110010000000000001 >
b1 ?
#25000
0!
b11011000000011110000 #
b11011000000011110000 $
0%
#26000
1!
1%
bx *
1+
b111 ,
b10 -
b0 /
b1111 0
01
b111 3
b10 5
bx 6
b111 7
b10 8
b1111 9
b0 :
0;
0<
1=
b11011000000011110000 >
b10 ?
#27000
0!
0%
#28000
1!
1%
bx *
b1001 .
b1001 5
b111 7
b10 8
b1111 9
b0 :
0;
0<
1=
b11011000000011110000 >
b100 ?
#29000
0!
0%
#30000
1!
1%
b1001 5
b111 7
b10 8
b1111 9
b0 :
0;
0<
1=
b11011000000011110000 >
b1000 ?
#31000
0!
b11001100000101100000 #
b11001100000101100000 $
0%
#32000
1!
1%
b100 ,
b10 -
b10110 0
b100 3
b1001 5
b100 7
b10 8
b10110 9
b0 :
0;
0<
1=
b11001100000101100000 >
b1 ?
#33000
0!
0%
#34000
1!
1%
bx *
b110 .
b110 5
b100 7
b10 8
b10110 9
b0 :
0;
0<
1=
b11001100000101100000 >
b10 ?
#35000
0!
0%
#36000
1!
1%
b0 )
b0 *
b110 5
b0 6
b100 7
b10 8
b10110 9
b0 :
0;
0<
1=
b11001100000101100000 >
b100 ?
#37000
0!
b10111000000011110000 #
b10111000000011110000 $
0%
#38000
1!
1%
0+
b10 ,
b1111 -
b1111 0
12
b10 3
b110 5
b0 6
b10 7
b10 8
b1111 9
b0 :
0;
1<
0=
b10111000000011110000 >
b1000 ?
#39000
0!
0%
#40000
1!
1%
bx )
bx *
b10001 .
b10001 5
bx 6
b10 7
b10 8
b1111 9
b0 :
0;
1<
0=
b10111000000011110000 >
b1 ?
#41000
0!
0%
#42000
1!
1%
b0 (
bx )
b1111 -
b0 4
b10001 5
bx 6
b10 7
b0 8
b1111 9
b0 :
0;
1<
0=
b10111000000011110000 >
b10 ?
#43000
0!
0%
#44000
1!
1%
bx )
b10001 5
bx 6
b10 7
b0 8
b1111 9
b0 :
0;
1<
0=
b10111000000011110000 >
b100 ?
